<svg width="241" height="194" viewBox="0 0 241 194" fill="none" xmlns="http://www.w3.org/2000/svg">
<path d="M2.33496 135.229V151.731L16.627 159.981L30.9176 151.731V135.229L16.627 126.979L2.33496 135.229Z" fill="#F5B349"/>
<path d="M21 168.25V184.752L35.2907 193.002L49.5827 184.752V168.25L35.2907 160L21 168.25Z" fill="#EAEAEA"/>
<path d="M40 139.25V155.752L54.2907 164.002L68.5827 155.752V139.25L54.2907 131L40 139.25Z" fill="#EAEAEA"/>
<path d="M60.457 167.041V183.544L74.749 191.794L89.0397 183.544V167.041L74.749 158.792L60.457 167.041Z" fill="#EAEAEA"/>
<path d="M97.5391 167.041V183.544L111.831 191.794L126.122 183.544V167.041L111.831 158.792L97.5391 167.041Z" fill="#EAEAEA"/>
<path d="M20.3857 101.895V118.396L34.6764 126.647L48.9684 118.396V101.895L34.6764 93.6443L20.3857 101.895Z" fill="#EAEAEA"/>
<path d="M1 69.2504V85.7518L15.292 94.0024L29.5827 85.7518V69.2504L15.292 60.9998L1 69.2504Z" stroke="#EAEAEA" stroke-width="1.33333" stroke-miterlimit="10"/>
<path d="M232.626 25.2716L231.531 23.4594C222.306 8.18292 205.625 -1.02597 188.038 0.0913849C185.778 0.235001 183.527 0.542587 181.306 1.0202C165.316 4.45935 151.403 16.6094 145.636 32.1703C142.245 41.3217 141.297 51.8583 134.861 59.1225C126.484 68.5764 112.263 68.8729 99.7602 68.4814C87.2573 68.0895 73.0265 68.424 64.6908 77.915C59.4706 83.8589 57.8114 92.3118 58.2323 100.272C59.3466 121.348 73.9619 140.192 92.5485 149.558C111.135 158.925 133.019 159.764 153.361 155.644C181.857 149.872 208.958 134.02 225.247 109.536C241.536 85.0531 245.659 51.6971 232.626 25.2716Z" fill="#EAEAEA"/>
<path d="M188.103 150.757H98.8972C96.4829 150.757 94.5258 148.723 94.5258 146.214L94.5254 9.19955C94.5254 6.68997 96.4829 4.65588 98.8967 4.65588H188.103C190.517 4.65588 192.474 6.68997 192.474 9.19955V146.214C192.474 148.723 190.517 150.757 188.103 150.757Z" fill="#302D4D"/>
<path d="M145.208 144.111C145.208 146.375 143.349 148.209 141.054 148.209C138.76 148.209 136.9 146.375 136.9 144.111C136.9 141.847 138.76 140.013 141.054 140.013C143.349 140.013 145.208 141.847 145.208 144.111Z" fill="#F5B349"/>
<path d="M153.536 12.3765H133.532C132.761 12.3765 132.137 11.7275 132.137 10.9264C132.137 10.1258 132.761 9.47634 133.532 9.47634H153.536C154.306 9.47634 154.931 10.1258 154.931 10.9264C154.931 11.7275 154.306 12.3765 153.536 12.3765Z" fill="#F5B349"/>
<path d="M189.301 137.092H97.5293V15.0792H189.301V137.092Z" fill="white"/>
<path d="M189.386 137.092H97.6143V15.0792H189.386V137.092Z" fill="#EAEAEA"/>
<path d="M177.322 127.072H109.679C107.269 127.072 105.315 125.109 105.315 122.688V29.4096C105.315 26.9885 107.269 25.0256 109.679 25.0256H177.322C179.731 25.0256 181.684 26.9885 181.684 29.4096V122.688C181.684 125.109 179.731 127.072 177.322 127.072Z" fill="white"/>
<path d="M130.071 38.1927L130.502 37.2203C130.913 37.4934 131.496 37.6798 132.033 37.6798C132.576 37.6798 132.788 37.5268 132.788 37.3004C132.788 36.5611 130.151 37.1007 130.151 35.3695C130.151 34.5373 130.827 33.858 132.205 33.858C132.808 33.858 133.431 33.9977 133.888 34.2641L133.484 35.2432C133.04 35.0034 132.602 34.8833 132.198 34.8833C131.649 34.8833 131.449 35.0697 131.449 35.3028C131.449 36.0153 134.08 35.4829 134.08 37.2007C134.08 38.013 133.404 38.7051 132.026 38.7051C131.264 38.7051 130.509 38.4987 130.071 38.1927Z" fill="#302D4D"/>
<path d="M134.625 35.0036H135.884V38.6123H134.625V35.0036ZM134.485 33.9316C134.485 33.5518 134.79 33.2591 135.254 33.2591C135.718 33.2591 136.023 33.5317 136.023 33.9116C136.023 34.311 135.718 34.6037 135.254 34.6037C134.79 34.6037 134.485 34.311 134.485 33.9316Z" fill="#302D4D"/>
<path d="M139.316 36.6812C139.316 36.2417 138.984 35.949 138.534 35.949C138.084 35.949 137.746 36.2417 137.746 36.6812C137.746 37.1206 138.084 37.4204 138.534 37.4204C138.984 37.4204 139.316 37.1206 139.316 36.6812ZM140.562 35.0034V37.9529C140.562 39.318 139.793 39.9634 138.455 39.9634C137.766 39.9634 137.11 39.8037 136.672 39.491L137.13 38.6054C137.428 38.8451 137.918 38.9915 138.342 38.9915C139.018 38.9915 139.303 38.685 139.303 38.1192V37.9996C139.058 38.2856 138.693 38.4257 138.236 38.4257C137.282 38.4257 136.474 37.7465 136.474 36.6812C136.474 35.6225 137.282 34.9433 138.236 34.9433C138.733 34.9433 139.117 35.103 139.362 35.4428V35.0034H140.562Z" fill="#302D4D"/>
<path d="M145.194 36.5484V38.6123H143.935V36.7548C143.935 36.2353 143.71 36.0155 143.346 36.0155C142.942 36.0155 142.63 36.2686 142.63 36.8678V38.6123H141.371V35.0036H142.57V35.3964C142.855 35.097 143.26 34.9436 143.71 34.9436C144.552 34.9436 145.194 35.4297 145.194 36.5484Z" fill="#302D4D"/>
<path d="M151.69 35.0036V38.6123H150.491V38.2262C150.219 38.5256 149.835 38.6724 149.424 38.6724C148.543 38.6724 147.899 38.1662 147.899 37.0212V35.0036H149.159V36.8149C149.159 37.374 149.377 37.5937 149.755 37.5937C150.126 37.5937 150.431 37.3473 150.431 36.7415V35.0036H151.69Z" fill="#302D4D"/>
<path d="M155.25 36.808C155.25 36.2617 154.919 35.9491 154.495 35.9491C154.071 35.9491 153.739 36.2617 153.739 36.808C153.739 37.3542 154.071 37.6669 154.495 37.6669C154.919 37.6669 155.25 37.3542 155.25 36.808ZM156.522 36.808C156.522 37.9533 155.734 38.6721 154.76 38.6721C154.342 38.6721 154.004 38.5458 153.759 38.2927V39.9038H152.5V35.0034H153.699V35.3632C153.938 35.0768 154.289 34.9438 154.76 34.9438C155.734 34.9438 156.522 35.6626 156.522 36.808Z" fill="#302D4D"/>
<path d="M114.65 49.4596V49.9529H115.51V50.2999H114.65V50.98H114.22V49.1127H115.624V49.4596H114.65Z" fill="#302D4D"/>
<path d="M117.29 49.5452V50.9801H116.897V50.8093C116.788 50.9347 116.629 51.0015 116.454 51.0015C116.095 51.0015 115.843 50.7986 115.843 50.3561V49.5452H116.257V50.2947C116.257 50.5349 116.363 50.6412 116.547 50.6412C116.737 50.6412 116.876 50.5189 116.876 50.2546V49.5452H117.29Z" fill="#302D4D"/>
<path d="M117.676 49.0006H118.09V50.98H117.676V49.0006Z" fill="#302D4D"/>
<path d="M118.475 49.0006H118.889V50.98H118.475V49.0006Z" fill="#302D4D"/>
<path d="M121.759 49.1127V50.98H121.406L120.479 49.8462V50.98H120.055V49.1127H120.411L121.334 50.2465V49.1127H121.759Z" fill="#302D4D"/>
<path d="M123.022 50.5269V50.3801H122.737C122.544 50.3801 122.483 50.4521 122.483 50.5482C122.483 50.6523 122.57 50.7217 122.717 50.7217C122.855 50.7217 122.974 50.6576 123.022 50.5269ZM123.436 50.1617V50.9806H123.048V50.8017C122.971 50.9325 122.822 51.0015 122.613 51.0015C122.278 51.0015 122.079 50.8151 122.079 50.5669C122.079 50.3138 122.257 50.1377 122.692 50.1377H123.022C123.022 49.9588 122.915 49.8548 122.692 49.8548C122.541 49.8548 122.385 49.9055 122.281 49.9882L122.132 49.6973C122.289 49.5852 122.52 49.5238 122.748 49.5238C123.184 49.5238 123.436 49.7267 123.436 50.1617Z" fill="#302D4D"/>
<path d="M126.224 50.1584V50.98H125.809V50.2225C125.809 49.9907 125.706 49.8835 125.539 49.8835C125.353 49.8835 125.223 50.0036 125.223 50.2598V50.98H124.809V50.2225C124.809 49.9907 124.71 49.8835 124.538 49.8835C124.355 49.8835 124.224 50.0036 124.224 50.2598V50.98H123.811V49.545H124.206V49.7105C124.312 49.5877 124.471 49.5237 124.655 49.5237C124.854 49.5237 125.024 49.6011 125.124 49.7585C125.239 49.6118 125.425 49.5237 125.64 49.5237C125.979 49.5237 126.224 49.7212 126.224 50.1584Z" fill="#302D4D"/>
<path d="M126.918 50.1372H127.621C127.592 49.9557 127.456 49.8387 127.27 49.8387C127.082 49.8387 126.947 49.9531 126.918 50.1372ZM128.003 50.3801H126.923C126.963 50.5589 127.114 50.6679 127.331 50.6679C127.483 50.6679 127.592 50.6225 127.69 50.5291L127.91 50.7693C127.778 50.9214 127.578 51.0015 127.321 51.0015C126.827 51.0015 126.506 50.6892 126.506 50.2626C126.506 49.833 126.833 49.5238 127.268 49.5238C127.687 49.5238 128.011 49.8063 128.011 50.268C128.011 50.3 128.006 50.3454 128.003 50.3801Z" fill="#302D4D"/>
<path d="M115.66 69.7527V70.0996H114.221V68.2323H115.625V68.5793H114.648V68.9845H115.511V69.3208H114.648V69.7527H115.66Z" fill="#302D4D"/>
<path d="M118.387 69.2781V70.0996H117.972V69.3421C117.972 69.1099 117.869 69.0032 117.702 69.0032C117.516 69.0032 117.386 69.1233 117.386 69.3795V70.0996H116.972V69.3421C116.972 69.1099 116.874 69.0032 116.701 69.0032C116.518 69.0032 116.388 69.1233 116.388 69.3795V70.0996H115.974V68.6647H116.369V68.8301C116.475 68.7074 116.635 68.6433 116.818 68.6433C117.017 68.6433 117.187 68.7207 117.287 68.8782C117.402 68.7314 117.588 68.6433 117.803 68.6433C118.142 68.6433 118.387 68.8408 118.387 69.2781Z" fill="#302D4D"/>
<path d="M119.609 69.646V69.4992H119.325C119.132 69.4992 119.071 69.5713 119.071 69.6673C119.071 69.7714 119.158 69.8408 119.304 69.8408C119.443 69.8408 119.562 69.7768 119.609 69.646ZM120.024 69.2808V70.0997H119.636V69.9209C119.559 70.0517 119.41 70.1206 119.201 70.1206C118.866 70.1206 118.667 69.9342 118.667 69.686C118.667 69.4329 118.845 69.2568 119.28 69.2568H119.609C119.609 69.078 119.503 68.9739 119.28 68.9739C119.129 68.9739 118.972 69.0246 118.869 69.1073L118.72 68.8164C118.877 68.7043 119.108 68.643 119.336 68.643C119.771 68.643 120.024 68.8458 120.024 69.2808Z" fill="#302D4D"/>
<path d="M120.399 68.6647H120.813V70.0996H120.399V68.6647ZM120.349 68.2323C120.349 68.1015 120.452 68.0006 120.606 68.0006C120.76 68.0006 120.863 68.0967 120.863 68.2243C120.863 68.3631 120.76 68.4645 120.606 68.4645C120.452 68.4645 120.349 68.3631 120.349 68.2323Z" fill="#302D4D"/>
<path d="M121.197 68.1202H121.612V70.0996H121.197V68.1202Z" fill="#302D4D"/>
<path d="M123.867 69.3715L123.572 68.6567L123.278 69.3715H123.867ZM124.003 69.6997H123.14L122.975 70.0996H122.534L123.362 68.2328H123.787L124.618 70.0996H124.167L124.003 69.6997Z" fill="#302D4D"/>
<path d="M125.819 69.3823C125.819 69.1341 125.66 68.9846 125.456 68.9846C125.248 68.9846 125.089 69.1341 125.089 69.3823C125.089 69.6305 125.248 69.7795 125.456 69.7795C125.66 69.7795 125.819 69.6305 125.819 69.3823ZM126.225 68.1204V70.0997H125.83V69.9347C125.726 70.0597 125.575 70.1211 125.384 70.1211C124.98 70.1211 124.67 69.8333 124.67 69.3823C124.67 68.9317 124.98 68.6435 125.384 68.6435C125.559 68.6435 125.708 68.6995 125.811 68.8169V68.1204H126.225Z" fill="#302D4D"/>
<path d="M127.657 69.3823C127.657 69.1341 127.498 68.9846 127.294 68.9846C127.086 68.9846 126.927 69.1341 126.927 69.3823C126.927 69.6305 127.086 69.7795 127.294 69.7795C127.498 69.7795 127.657 69.6305 127.657 69.3823ZM128.063 68.1204V70.0997H127.668V69.9347C127.564 70.0597 127.413 70.1211 127.222 70.1211C126.818 70.1211 126.508 69.8333 126.508 69.3823C126.508 68.9317 126.818 68.6435 127.222 68.6435C127.397 68.6435 127.546 68.6995 127.649 68.8169V68.1204H128.063Z" fill="#302D4D"/>
<path d="M129.333 68.6433V69.0276C129.298 69.025 129.272 69.0223 129.24 69.0223C129.012 69.0223 128.861 69.1477 128.861 69.4226V70.0996H128.446V68.6647H128.842V68.8542C128.943 68.7154 129.113 68.6433 129.333 68.6433Z" fill="#302D4D"/>
<path d="M129.873 69.2568H130.576C130.547 69.0754 130.411 68.9584 130.225 68.9584C130.037 68.9584 129.902 69.0727 129.873 69.2568ZM130.958 69.4997H129.878C129.918 69.6785 130.069 69.7875 130.287 69.7875C130.438 69.7875 130.547 69.7421 130.645 69.6487L130.866 69.8889C130.733 70.041 130.534 70.1211 130.276 70.1211C129.782 70.1211 129.461 69.8088 129.461 69.3823C129.461 68.9526 129.788 68.6435 130.223 68.6435C130.642 68.6435 130.966 68.9259 130.966 69.3876C130.966 69.4196 130.961 69.465 130.958 69.4997Z" fill="#302D4D"/>
<path d="M131.104 69.9663L131.242 69.6674C131.37 69.7501 131.564 69.8062 131.739 69.8062C131.93 69.8062 132.002 69.7555 132.002 69.6754C132.002 69.441 131.139 69.6807 131.139 69.1074C131.139 68.8356 131.383 68.643 131.8 68.643C131.996 68.643 132.214 68.6888 132.35 68.7689L132.212 69.0647C132.071 68.9846 131.93 68.9579 131.8 68.9579C131.614 68.9579 131.534 69.0166 131.534 69.0914C131.534 69.3369 132.397 69.0994 132.397 69.6647C132.397 69.9316 132.15 70.1211 131.723 70.1211C131.482 70.1211 131.237 70.0544 131.104 69.9663Z" fill="#302D4D"/>
<path d="M132.516 69.9663L132.654 69.6674C132.781 69.7501 132.975 69.8062 133.15 69.8062C133.341 69.8062 133.413 69.7555 133.413 69.6754C133.413 69.441 132.55 69.6807 132.55 69.1074C132.55 68.8356 132.794 68.643 133.211 68.643C133.408 68.643 133.625 68.6888 133.761 68.7689L133.622 69.0647C133.482 68.9846 133.341 68.9579 133.211 68.9579C133.025 68.9579 132.945 69.0166 132.945 69.0914C132.945 69.3369 133.808 69.0994 133.808 69.6647C133.808 69.9316 133.561 70.1211 133.134 70.1211C132.893 70.1211 132.648 70.0544 132.516 69.9663Z" fill="#302D4D"/>
<path d="M115.069 89.2569C115.069 89.0514 114.936 88.9313 114.673 88.9313H114.323V89.5794H114.673C114.936 89.5794 115.069 89.4598 115.069 89.2569ZM115.504 89.2569C115.504 89.6728 115.194 89.9317 114.697 89.9317H114.323V90.4468H113.893V88.5795H114.697C115.194 88.5795 115.504 88.8384 115.504 89.2569Z" fill="#302D4D"/>
<path d="M116.617 89.9932V89.8464H116.333C116.14 89.8464 116.079 89.9184 116.079 90.0145C116.079 90.1186 116.166 90.1875 116.312 90.1875C116.45 90.1875 116.569 90.1239 116.617 89.9932ZM117.032 89.628V90.4469H116.644V90.2681C116.567 90.3984 116.418 90.4678 116.209 90.4678C115.874 90.4678 115.675 90.281 115.675 90.0332C115.675 89.7801 115.853 89.604 116.288 89.604H116.617C116.617 89.4252 116.511 89.3211 116.288 89.3211C116.137 89.3211 115.98 89.3718 115.877 89.4545L115.728 89.1636C115.885 89.0515 116.116 88.9901 116.344 88.9901C116.779 88.9901 117.032 89.193 117.032 89.628Z" fill="#302D4D"/>
<path d="M117.269 90.3135L117.407 90.0146C117.534 90.0977 117.728 90.1538 117.903 90.1538C118.094 90.1538 118.166 90.1026 118.166 90.023C118.166 89.7877 117.303 90.0279 117.303 89.4546C117.303 89.1823 117.547 88.9902 117.964 88.9902C118.161 88.9902 118.378 89.036 118.514 89.1161L118.376 89.4119C118.235 89.3318 118.094 89.3051 117.964 89.3051C117.778 89.3051 117.698 89.3638 117.698 89.4385C117.698 89.6841 118.561 89.4465 118.561 90.0119C118.561 90.2788 118.314 90.4683 117.887 90.4683C117.646 90.4683 117.401 90.4015 117.269 90.3135Z" fill="#302D4D"/>
<path d="M118.679 90.3135L118.817 90.0146C118.944 90.0977 119.138 90.1538 119.313 90.1538C119.504 90.1538 119.576 90.1026 119.576 90.023C119.576 89.7877 118.713 90.0279 118.713 89.4546C118.713 89.1823 118.957 88.9902 119.374 88.9902C119.571 88.9902 119.788 89.036 119.924 89.1161L119.786 89.4119C119.645 89.3318 119.504 89.3051 119.374 89.3051C119.188 89.3051 119.109 89.3638 119.109 89.4385C119.109 89.6841 119.971 89.4465 119.971 90.0119C119.971 90.2788 119.724 90.4683 119.297 90.4683C119.056 90.4683 118.812 90.4015 118.679 90.3135Z" fill="#302D4D"/>
<path d="M122.494 89.0114L121.976 90.4468H121.578L121.257 89.5558L120.925 90.4468H120.527L120.012 89.0114H120.402L120.739 89.9828L121.09 89.0114H121.44L121.78 89.9828L122.127 89.0114H122.494Z" fill="#302D4D"/>
<path d="M123.693 89.729C123.693 89.4808 123.536 89.3313 123.329 89.3313C123.122 89.3313 122.963 89.4808 122.963 89.729C122.963 89.9772 123.122 90.1262 123.329 90.1262C123.536 90.1262 123.693 89.9772 123.693 89.729ZM122.543 89.729C122.543 89.2966 122.875 88.9901 123.329 88.9901C123.783 88.9901 124.112 89.2966 124.112 89.729C124.112 90.1613 123.783 90.4678 123.329 90.4678C122.875 90.4678 122.543 90.1613 122.543 89.729Z" fill="#302D4D"/>
<path d="M125.275 88.9905V89.3744C125.241 89.3717 125.214 89.3695 125.182 89.3695C124.954 89.3695 124.803 89.4949 124.803 89.7693V90.4468H124.389V89.0118H124.784V89.2013C124.885 89.0625 125.055 88.9905 125.275 88.9905Z" fill="#302D4D"/>
<path d="M126.558 89.729C126.558 89.4808 126.399 89.3313 126.195 89.3313C125.988 89.3313 125.828 89.4808 125.828 89.729C125.828 89.9772 125.988 90.1262 126.195 90.1262C126.399 90.1262 126.558 89.9772 126.558 89.729ZM126.964 88.4675V90.4464H126.569V90.281C126.465 90.4064 126.314 90.4678 126.123 90.4678C125.719 90.4678 125.409 90.18 125.409 89.729C125.409 89.2779 125.719 88.9901 126.123 88.9901C126.298 88.9901 126.447 89.0462 126.55 89.1632V88.4675H126.964Z" fill="#302D4D"/>
<path d="M162.747 120.379H127.371C126.202 120.379 125.255 119.427 125.255 118.253V114.36C125.255 113.186 126.202 112.234 127.371 112.234H162.747C163.915 112.234 164.863 113.186 164.863 114.36V118.253C164.863 119.427 163.915 120.379 162.747 120.379Z" fill="#302D4D"/>
<path d="M132.353 116.122C132.353 115.458 132.858 114.988 133.546 114.988C133.946 114.988 134.268 115.134 134.48 115.399L134.089 115.755C133.952 115.589 133.785 115.499 133.577 115.499C133.221 115.499 132.972 115.748 132.972 116.122C132.972 116.496 133.221 116.745 133.577 116.745C133.785 116.745 133.952 116.654 134.089 116.489L134.48 116.845C134.268 117.11 133.946 117.256 133.546 117.256C132.858 117.256 132.353 116.785 132.353 116.122Z" fill="white"/>
<path d="M135.849 115.495V116.028C135.796 116.022 135.759 116.019 135.716 116.019C135.477 116.019 135.312 116.14 135.312 116.436V117.212H134.724V115.523H135.284V115.726C135.405 115.574 135.601 115.495 135.849 115.495Z" fill="white"/>
<path d="M136.552 116.206H137.24C137.209 116.029 137.079 115.916 136.896 115.916C136.713 115.916 136.586 116.029 136.552 116.206ZM137.782 116.517H136.561C136.611 116.689 136.756 116.789 136.974 116.789C137.138 116.789 137.246 116.742 137.361 116.642L137.671 116.966C137.51 117.146 137.274 117.24 136.955 117.24C136.357 117.24 135.969 116.869 135.969 116.364C135.969 115.857 136.363 115.495 136.893 115.495C137.389 115.495 137.792 115.813 137.792 116.371C137.792 116.415 137.786 116.471 137.782 116.517Z" fill="white"/>
<path d="M139.003 116.67V116.524H138.749C138.56 116.524 138.491 116.592 138.491 116.695C138.491 116.795 138.572 116.866 138.712 116.866C138.842 116.866 138.956 116.804 139.003 116.67ZM139.592 116.274V117.212H139.043V116.994C138.959 117.156 138.792 117.24 138.547 117.24C138.144 117.24 137.921 117.013 137.921 116.72C137.921 116.408 138.147 116.215 138.668 116.215H139.003C138.993 116.044 138.879 115.947 138.646 115.947C138.485 115.947 138.305 116.003 138.19 116.094L137.992 115.692C138.184 115.564 138.469 115.495 138.733 115.495C139.279 115.495 139.592 115.739 139.592 116.274Z" fill="white"/>
<path d="M141.123 117.143C141.02 117.209 140.868 117.24 140.713 117.24C140.282 117.24 140.031 117.028 140.031 116.595V116.028H139.786V115.586H140.031V115.147H140.62V115.586H141.004V116.028H140.62V116.589C140.62 116.713 140.691 116.782 140.797 116.782C140.862 116.782 140.927 116.763 140.977 116.729L141.123 117.143Z" fill="white"/>
<path d="M141.776 116.206H142.465C142.433 116.029 142.303 115.916 142.12 115.916C141.937 115.916 141.81 116.029 141.776 116.206ZM143.007 116.517H141.785C141.835 116.689 141.981 116.789 142.198 116.789C142.362 116.789 142.47 116.742 142.585 116.642L142.895 116.966C142.734 117.146 142.498 117.24 142.179 117.24C141.581 117.24 141.193 116.869 141.193 116.364C141.193 115.857 141.587 115.495 142.117 115.495C142.613 115.495 143.016 115.813 143.016 116.371C143.016 116.415 143.01 116.471 143.007 116.517Z" fill="white"/>
<path d="M145.491 116.334L145.212 115.636L144.933 116.334H145.491ZM145.671 116.789H144.753L144.583 117.212H143.957L144.915 115.032H145.519L146.48 117.212H145.841L145.671 116.789Z" fill="white"/>
<path d="M146.504 116.364C146.504 115.856 146.904 115.495 147.468 115.495C147.849 115.495 148.14 115.667 148.256 115.96L147.8 116.193C147.719 116.034 147.601 115.966 147.465 115.966C147.26 115.966 147.099 116.109 147.099 116.364C147.099 116.626 147.26 116.77 147.465 116.77C147.601 116.77 147.719 116.701 147.8 116.542L148.256 116.776C148.14 117.069 147.849 117.24 147.468 117.24C146.904 117.24 146.504 116.879 146.504 116.364Z" fill="white"/>
<path d="M148.354 116.364C148.354 115.856 148.754 115.495 149.319 115.495C149.7 115.495 149.991 115.667 150.106 115.96L149.65 116.193C149.57 116.034 149.452 115.966 149.316 115.966C149.111 115.966 148.95 116.109 148.95 116.364C148.95 116.626 149.111 116.77 149.316 116.77C149.452 116.77 149.57 116.701 149.65 116.542L150.106 116.776C149.991 117.069 149.7 117.24 149.319 117.24C148.754 117.24 148.354 116.879 148.354 116.364Z" fill="white"/>
<path d="M151.506 116.364C151.506 116.109 151.354 115.966 151.152 115.966C150.954 115.966 150.799 116.109 150.799 116.364C150.799 116.623 150.954 116.77 151.152 116.77C151.354 116.77 151.506 116.623 151.506 116.364ZM150.204 116.364C150.204 115.856 150.604 115.495 151.152 115.495C151.707 115.495 152.101 115.856 152.101 116.364C152.101 116.875 151.707 117.24 151.152 117.24C150.604 117.24 150.204 116.875 150.204 116.364Z" fill="white"/>
<path d="M154.14 115.524V117.212H153.578V117.032C153.451 117.172 153.271 117.24 153.079 117.24C152.667 117.24 152.366 117.003 152.366 116.468V115.524H152.955V116.371C152.955 116.633 153.058 116.736 153.234 116.736C153.408 116.736 153.551 116.62 153.551 116.337V115.524H154.14Z" fill="white"/>
<path d="M156.306 116.247V117.212H155.717V116.343C155.717 116.1 155.611 115.997 155.441 115.997C155.251 115.997 155.106 116.116 155.106 116.396V117.212H154.517V115.524H155.078V115.708C155.211 115.568 155.4 115.496 155.611 115.496C156.005 115.496 156.306 115.723 156.306 116.247Z" fill="white"/>
<path d="M157.833 117.143C157.731 117.209 157.579 117.24 157.424 117.24C156.993 117.24 156.741 117.028 156.741 116.595V116.028H156.497V115.586H156.741V115.147H157.331V115.586H157.715V116.028H157.331V116.589C157.331 116.713 157.402 116.782 157.508 116.782C157.572 116.782 157.638 116.763 157.687 116.729L157.833 117.143Z" fill="white"/>
<path d="M145.769 50.1581V49.1128H146.199V50.1421C146.199 50.4971 146.352 50.6439 146.613 50.6439C146.875 50.6439 147.027 50.4971 147.027 50.1421V49.1128H147.452V50.1581C147.452 50.7075 147.138 51.0117 146.61 51.0117C146.082 51.0117 145.769 50.7075 145.769 50.1581Z" fill="#302D4D"/>
<path d="M147.71 50.8467L147.848 50.5478C147.976 50.6305 148.169 50.6865 148.344 50.6865C148.536 50.6865 148.607 50.6358 148.607 50.5558C148.607 50.3214 147.744 50.5611 147.744 49.9878C147.744 49.7155 147.989 49.5234 148.405 49.5234C148.602 49.5234 148.82 49.5687 148.955 49.6493L148.817 49.9451C148.676 49.865 148.536 49.8383 148.405 49.8383C148.219 49.8383 148.14 49.897 148.14 49.9717C148.14 50.2173 149.003 49.9797 149.003 50.5451C149.003 50.812 148.756 51.0015 148.328 51.0015C148.087 51.0015 147.843 50.9347 147.71 50.8467Z" fill="#302D4D"/>
<path d="M149.564 50.1372H150.267C150.238 49.9557 150.103 49.8387 149.917 49.8387C149.728 49.8387 149.593 49.9531 149.564 50.1372ZM150.649 50.3801H149.569C149.609 50.5589 149.76 50.6679 149.977 50.6679C150.129 50.6679 150.238 50.6225 150.336 50.5291L150.556 50.7693C150.424 50.9214 150.224 51.0015 149.967 51.0015C149.474 51.0015 149.152 50.6892 149.152 50.2626C149.152 49.833 149.479 49.5238 149.914 49.5238C150.333 49.5238 150.657 49.8063 150.657 50.268C150.657 50.3 150.652 50.3454 150.649 50.3801Z" fill="#302D4D"/>
<path d="M151.821 49.5232V49.9075C151.787 49.9048 151.76 49.9022 151.728 49.9022C151.5 49.9022 151.349 50.0276 151.349 50.3021V50.9795H150.935V49.5446H151.33V49.734C151.431 49.5953 151.601 49.5232 151.821 49.5232Z" fill="#302D4D"/>
<path d="M153.528 50.1584V50.98H153.114V50.2225C153.114 49.9907 153.008 49.8835 152.825 49.8835C152.626 49.8835 152.483 50.0063 152.483 50.2705V50.98H152.068V49.545H152.464V49.7132C152.576 49.5904 152.743 49.5237 152.936 49.5237C153.274 49.5237 153.528 49.7212 153.528 50.1584Z" fill="#302D4D"/>
<path d="M154.753 50.5264V50.3796H154.469C154.275 50.3796 154.214 50.4516 154.214 50.5477C154.214 50.6518 154.302 50.7212 154.448 50.7212C154.586 50.7212 154.706 50.6571 154.753 50.5264ZM155.167 50.1612V50.9801H154.78V50.8013C154.703 50.932 154.554 51.001 154.344 51.001C154.01 51.001 153.811 50.8146 153.811 50.5664C153.811 50.3133 153.989 50.1367 154.424 50.1367H154.753C154.753 49.9584 154.647 49.8543 154.424 49.8543C154.273 49.8543 154.116 49.905 154.012 49.9877L153.864 49.6968C154.02 49.5847 154.251 49.5233 154.48 49.5233C154.915 49.5233 155.167 49.7262 155.167 50.1612Z" fill="#302D4D"/>
<path d="M157.955 50.1584V50.98H157.541V50.2225C157.541 49.9907 157.437 49.8835 157.27 49.8835C157.084 49.8835 156.954 50.0036 156.954 50.2598V50.98H156.54V50.2225C156.54 49.9907 156.442 49.8835 156.269 49.8835C156.086 49.8835 155.956 50.0036 155.956 50.2598V50.98H155.542V49.545H155.937V49.7105C156.044 49.5877 156.203 49.5237 156.386 49.5237C156.585 49.5237 156.755 49.6011 156.856 49.7585C156.97 49.6118 157.156 49.5237 157.371 49.5237C157.711 49.5237 157.955 49.7212 157.955 50.1584Z" fill="#302D4D"/>
<path d="M158.65 50.1372H159.353C159.324 49.9557 159.189 49.8387 159.003 49.8387C158.814 49.8387 158.679 49.9531 158.65 50.1372ZM159.735 50.3801H158.655C158.695 50.5589 158.846 50.6679 159.063 50.6679C159.215 50.6679 159.324 50.6225 159.422 50.5291L159.642 50.7693C159.51 50.9214 159.31 51.0015 159.053 51.0015C158.56 51.0015 158.238 50.6892 158.238 50.2626C158.238 49.833 158.565 49.5238 159 49.5238C159.419 49.5238 159.743 49.8063 159.743 50.268C159.743 50.3 159.738 50.3454 159.735 50.3801Z" fill="#302D4D"/>
<path d="M141.265 58.686H115.388C114.622 58.686 114 58.0615 114 57.2907V54.4408C114 53.67 114.622 53.0455 115.388 53.0455H141.265C142.031 53.0455 142.653 53.67 142.653 54.4408V57.2907C142.653 58.0615 142.031 58.686 141.265 58.686Z" fill="#EAEAEA"/>
<path d="M172.304 77.4321H115.389C114.622 77.4321 114 76.8076 114 76.0368V73.1869C114 72.4161 114.622 71.7916 115.389 71.7916H172.304C173.07 71.7916 173.692 72.4161 173.692 73.1869V76.0368C173.692 76.8076 173.07 77.4321 172.304 77.4321Z" fill="#EAEAEA"/>
<path d="M171.694 97.8672H114.779C114.013 97.8672 113.391 97.2427 113.391 96.4718V93.622C113.391 92.8511 114.013 92.2266 114.779 92.2266H171.694C172.461 92.2266 173.083 92.8511 173.083 93.622V96.4718C173.083 97.2427 172.461 97.8672 171.694 97.8672Z" fill="#EAEAEA"/>
<path d="M172.303 58.686H146.952C146.185 58.686 145.563 58.0615 145.563 57.2907V54.4408C145.563 53.67 146.185 53.0455 146.952 53.0455H172.303C173.07 53.0455 173.691 53.67 173.691 54.4408V57.2907C173.691 58.0615 173.07 58.686 172.303 58.686Z" fill="#EAEAEA"/>
<path d="M116 103.451H114.539C114.296 103.451 114.1 103.254 114.1 103.01V101.542C114.1 101.298 114.296 101.101 114.539 101.101H116C116.242 101.101 116.439 101.298 116.439 101.542V103.01C116.439 103.254 116.242 103.451 116 103.451Z" fill="#302D4D"/>
<path d="M170.415 103.291H118.972C118.495 103.291 118.109 102.903 118.109 102.425C118.109 101.946 118.495 101.558 118.972 101.558H170.415C170.891 101.558 171.277 101.946 171.277 102.425C171.277 102.903 170.891 103.291 170.415 103.291Z" fill="#EAEAEA"/>
<path d="M184.089 26.7229C184.089 29.2952 182.014 31.3809 179.454 31.3809C176.894 31.3809 174.818 29.2952 174.818 26.7229C174.818 24.1506 176.894 22.0649 179.454 22.0649C182.014 22.0649 184.089 24.1506 184.089 26.7229Z" fill="#302D4D"/>
<path d="M178.263 28.6064L177.579 27.9192L180.644 24.8389L181.328 25.5266L178.263 28.6064Z" fill="white"/>
<path d="M181.328 27.9192L180.645 28.6064L177.579 25.5266L178.263 24.8394L181.328 27.9192Z" fill="white"/>
<path d="M96.7874 113.487C97.0596 112.615 97.7626 111.891 98.6231 111.596C98.9733 111.476 99.3823 111.398 99.5837 111.087C99.728 110.863 99.7236 110.579 99.7865 110.321C99.9799 109.528 100.939 109.024 101.697 109.318C101.884 109.39 102.062 109.503 102.262 109.508C103.07 109.531 103.19 107.97 103.998 108.001C103.779 108.267 103.584 108.574 103.557 108.918C103.53 109.262 103.72 109.642 104.051 109.734C104.91 109.969 105.321 108.296 106.205 108.407C106.682 108.467 107.032 109.06 107.501 108.956C107.682 108.915 107.822 108.775 107.979 108.676C108.507 108.34 109.291 108.521 109.62 109.054C109.902 109.509 109.946 110.213 110.46 110.358C110.777 110.447 111.098 110.25 111.37 110.061C111.578 110.504 111.684 110.995 111.675 111.485C112.67 111.551 113.504 112.549 113.398 113.545C113.921 113.657 114.457 113.779 114.899 114.082C115.34 114.386 115.668 114.918 115.574 115.448C115.553 115.568 115.511 115.687 115.524 115.809C115.537 115.94 115.614 116.056 115.694 116.161C116.004 116.565 116.411 116.904 116.62 117.368C116.83 117.833 116.735 118.501 116.262 118.685C116.151 118.728 116.018 118.749 115.957 118.852C115.911 118.929 115.924 119.026 115.948 119.113C116.047 119.466 116.288 119.758 116.491 120.062C116.694 120.367 116.869 120.725 116.807 121.087C116.746 121.448 116.344 121.76 116.013 121.603C116.391 122.049 116.769 122.495 117.147 122.941C117.371 123.207 117.611 123.543 117.499 123.872C117.353 124.304 116.722 124.33 116.335 124.091C115.949 123.851 115.68 123.449 115.288 123.221C115.127 123.127 114.947 123.063 114.809 122.938C114.7 122.84 114.612 122.701 114.469 122.667C114.182 122.598 114.007 123.038 114.164 123.289C114.32 123.54 114.627 123.639 114.894 123.765C115.162 123.889 115.439 124.117 115.415 124.413C115.404 124.555 115.321 124.685 115.313 124.828C115.286 125.322 116.037 125.421 116.317 125.828C116.524 126.129 116.431 126.538 116.312 126.883C116.167 127.305 115.731 127.802 115.379 127.53C115.257 127.435 115.205 127.274 115.095 127.166C114.966 127.04 114.776 127.005 114.603 126.955C114.172 126.83 113.78 126.575 113.49 126.231C114.029 126.484 114.652 126.861 114.647 127.459C114.645 127.709 114.526 127.94 114.449 128.178C114.3 128.644 114.312 129.151 114.168 129.619C114.025 130.088 113.638 130.549 113.151 130.522C113.49 130.879 113.543 131.475 113.274 131.887C113.005 132.299 112.439 132.487 111.978 132.317C111.852 132.271 111.727 132.199 111.593 132.209C111.448 132.22 111.329 132.322 111.212 132.408C110.511 132.927 109.511 133 108.743 132.589C108.851 132.479 108.959 132.369 109.067 132.258C108.249 132.536 107.393 132.817 106.538 132.69C105.684 132.564 104.843 131.891 104.834 131.023C104.83 130.647 104.954 130.198 104.677 129.946C104.485 129.772 104.194 129.792 103.938 129.822C102.866 129.947 101.793 130.073 100.721 130.199C100.201 130.26 99.6488 130.316 99.1743 130.092C98.6997 129.869 98.3682 129.254 98.6324 128.8C98.2141 128.478 97.7033 128.279 97.1783 128.233C96.5882 128.181 95.9959 128.319 95.4041 128.294C94.8127 128.27 94.1628 128.021 93.9366 127.471C93.7109 126.921 94.2425 126.148 94.7972 126.357C94.3332 125.589 92.8839 126.239 92.3736 125.501C91.9592 124.902 92.6206 124.16 92.8038 123.454C92.6073 123.272 92.3085 123.24 92.1071 123.063C91.6843 122.693 91.9397 121.99 92.2886 121.548C92.6374 121.107 93.0849 120.614 92.9552 120.066C92.8224 119.505 92.1124 119.145 92.1651 118.571C92.1938 118.253 92.5068 117.989 92.8237 118.016C92.7392 116.909 94.8144 116.754 94.9034 115.649C94.91 115.561 94.9016 115.468 94.8534 115.395C94.8113 115.331 94.7449 115.29 94.6768 115.257C94.3532 115.101 93.9773 115.117 93.6263 115.044C93.2753 114.971 92.8999 114.744 92.868 114.385C92.8361 114.026 93.4121 113.756 93.563 114.082C93.7467 113.627 94.428 113.483 94.7795 113.824C94.8702 113.443 95.308 113.233 95.6958 113.265C96.0836 113.297 96.431 113.508 96.7622 113.714" fill="#302D4D"/>
<path d="M106.133 121.576C105.173 120.409 103.66 119.845 102.175 119.585C101.553 119.476 100.899 119.413 100.299 119.614C99.7001 119.814 99.1689 120.34 99.1396 120.974L99.7005 121.875C100.353 123.431 102.149 124.089 103.415 125.199C103.966 125.682 104.535 126.309 105.264 126.258C105.646 126.231 105.992 126.008 106.256 125.729C107.294 124.631 107.094 122.744 106.133 121.576Z" fill="#302D4D"/>
<path d="M109.83 128.415C110.086 126.854 109.039 125.184 107.527 124.742C107.704 123.764 106.944 122.813 106.031 122.433C105.117 122.053 104.09 122.106 103.103 122.166C101.598 120.396 98.6059 120.195 96.879 121.747C95.0296 120.778 92.6998 121.727 91.2116 123.195C90.8481 123.554 90.5051 123.95 90.0553 124.19C89.7251 124.366 89.355 124.45 89.0053 124.581C87.0806 125.307 85.9779 127.538 86.1753 129.594C86.2068 129.923 86.2661 130.255 86.2116 130.581C86.1399 131.008 85.8814 131.377 85.7052 131.772C85.3241 132.627 85.3391 133.651 85.7455 134.494C86.0908 135.21 86.7096 135.834 86.7561 136.628C86.7796 137.026 86.6512 137.427 86.7141 137.821C86.8964 138.962 88.4839 139.373 88.8212 140.478C88.8898 140.704 88.9 140.943 88.9504 141.173C89.054 141.644 89.3338 142.074 89.722 142.357C90.0217 142.576 90.3948 142.723 90.5887 143.04C90.7361 143.281 90.7525 143.577 90.8335 143.847C91.0305 144.509 93.5404 146.117 94.2266 146.165L109.625 138.033C110.658 137.169 111.038 135.604 110.516 134.359C110.43 134.152 110.318 133.937 110.357 133.716C110.389 133.527 110.524 133.376 110.629 133.217C111.331 132.152 110.723 130.726 110.02 129.662C109.921 129.513 109.819 129.361 109.777 129.187C109.716 128.935 109.788 128.672 109.83 128.415Z" fill="#302D4D"/>
<path d="M105.452 130.807C104.041 128.057 100.666 125.843 97.2595 125.965C95.1121 126.041 93.7846 126.751 92.8355 127.128C90.7102 127.973 89.6288 129.84 89.6288 129.84C88.8904 130.495 87.3172 135.014 88.8085 138.191C90.465 141.72 92.6257 145.964 94.4238 148.287C98.0386 152.957 102.3 151.446 102.3 151.446C102.296 151.438 104.198 155.398 104.198 155.398L109.518 159.925L114.259 152.159L115.292 150.481L105.452 130.807Z" fill="white"/>
<path d="M101.223 143.476C101.067 143.236 100.818 143.078 100.563 143.01C100.053 142.875 99.5117 143.099 99.2541 143.554C98.996 144.008 99.1647 144.487 99.4821 144.962C99.842 145.156 100.144 145.375 100.526 145.23C100.585 145.207 100.644 145.182 100.7 145.152C100.975 145.01 101.213 144.779 101.327 144.47C101.44 144.161 101.416 143.771 101.223 143.476Z" fill="#EAEAEA"/>
<path d="M92.674 141.696C92.852 142.05 93.2964 142.19 93.6669 142.01C94.037 141.83 94.1937 141.399 94.0157 141.045C93.8382 140.692 93.3933 140.552 93.0237 140.731C92.6527 140.911 92.496 141.343 92.674 141.696Z" fill="#302D4D"/>
<path d="M91.055 139.508C91.1829 139.549 91.476 138.907 92.1798 138.52C92.8775 138.122 93.5928 138.2 93.6216 138.072C93.638 138.012 93.4707 137.904 93.1564 137.863C92.8456 137.823 92.3808 137.872 91.9439 138.117C91.5074 138.361 91.2281 138.727 91.1072 139.01C90.9824 139.296 90.9944 139.492 91.055 139.508Z" fill="#302D4D"/>
<path d="M98.2261 142.808C98.2075 142.767 97.7289 142.932 96.9711 143.234C96.7812 143.314 96.5917 143.372 96.4939 143.266C96.3801 143.159 96.3487 142.923 96.3208 142.665C96.25 142.135 96.1761 141.58 96.0986 140.998C95.7635 138.635 95.4156 136.731 95.3208 136.746C95.2261 136.76 95.4209 138.688 95.756 141.051C95.8432 141.631 95.9255 142.185 96.0052 142.714C96.0495 142.956 96.0601 143.254 96.3 143.473C96.4226 143.581 96.6077 143.606 96.74 143.573C96.8741 143.545 96.9764 143.491 97.068 143.448C97.8015 143.092 98.2455 142.85 98.2261 142.808Z" fill="#302D4D"/>
<path d="M102.3 151.446C102.3 151.446 105.871 149.76 108.142 145.83C108.142 145.83 108.304 150.443 102.943 152.786L102.3 151.446Z" fill="#EAEAEA"/>
<path d="M90.1059 138.023C90.3183 138.13 90.7933 137.717 91.4511 137.421C92.0992 137.105 92.7211 137.004 92.7743 136.772C92.7942 136.662 92.6335 136.532 92.3205 136.479C92.0107 136.425 91.5516 136.471 91.1027 136.681C90.6543 136.892 90.3259 137.215 90.17 137.487C90.0107 137.762 90.0085 137.968 90.1059 138.023Z" fill="#302D4D"/>
<path d="M100.476 137.669C100.666 138.016 100.529 138.464 100.172 138.669C99.8157 138.874 99.3726 138.76 99.1831 138.413C98.9936 138.066 99.13 137.618 99.4863 137.413C99.8436 137.207 100.287 137.322 100.476 137.669Z" fill="#302D4D"/>
<path d="M100.824 134.461C100.785 134.59 100.093 134.47 99.3764 134.834C98.6561 135.188 98.3153 135.824 98.1936 135.775C98.1356 135.756 98.1413 135.555 98.2861 135.272C98.4282 134.991 98.7314 134.635 99.1789 134.41C99.6269 134.187 100.085 134.163 100.386 134.222C100.691 134.281 100.845 134.401 100.824 134.461Z" fill="#302D4D"/>
<path d="M99.3358 131.675C99.2765 131.91 98.6382 132.02 97.9693 132.348C97.2903 132.656 96.7958 133.079 96.5807 132.974C96.4824 132.92 96.489 132.711 96.6577 132.432C96.8228 132.154 97.165 131.824 97.6285 131.605C98.0919 131.387 98.5621 131.335 98.8772 131.385C99.1964 131.435 99.358 131.564 99.3358 131.675Z" fill="#302D4D"/>
<path d="M107.292 136.111C107.084 135.729 107.029 134.588 107.372 134.322C108.286 133.611 110.133 132.694 111.55 135.237C113.486 138.714 109.612 139.95 109.551 139.854C109.503 139.779 108.01 137.429 107.292 136.111Z" fill="white"/>
<path d="M109.798 138.047C109.807 138.027 109.882 138.055 110.01 138.045C110.135 138.035 110.324 137.97 110.466 137.801C110.757 137.461 110.739 136.705 110.407 136.069C110.24 135.747 110.006 135.483 109.756 135.296C109.508 135.101 109.246 135.016 109.043 135.086C108.836 135.146 108.768 135.331 108.78 135.452C108.788 135.576 108.848 135.633 108.833 135.649C108.828 135.663 108.727 135.632 108.675 135.473C108.65 135.396 108.645 135.291 108.689 135.178C108.735 135.064 108.837 134.961 108.974 134.903C109.251 134.771 109.628 134.883 109.903 135.088C110.194 135.286 110.464 135.578 110.652 135.94C111.02 136.653 111.028 137.508 110.609 137.935C110.401 138.136 110.157 138.176 110.006 138.153C109.851 138.128 109.79 138.06 109.798 138.047Z" fill="#EAEAEA"/>
<path d="M88.0646 138.666C88.525 137.837 88.6445 136.99 88.1465 136.183C88.6879 136.065 88.8309 135.202 88.8809 134.647C88.9305 134.092 89.1514 133.704 88.8636 133.228C88.807 133.134 88.7454 133.036 88.7432 132.926C88.7406 132.753 88.8818 132.618 89.0008 132.493C89.6144 131.852 89.8667 130.882 89.644 130.021C90.5674 129.937 91.4692 129.617 92.2407 129.1C92.8875 129.425 93.6993 129.391 94.3173 129.014C94.9352 128.636 95.3385 127.927 95.3487 127.201C95.7976 127.521 96.4023 127.553 96.9352 127.413C97.4686 127.274 97.948 126.983 98.4195 126.695C98.7245 127.748 99.9033 128.461 100.972 128.238C101.116 128.208 101.28 128.166 101.4 128.251C101.526 128.34 101.539 128.518 101.56 128.67C101.694 129.636 102.772 130.352 103.708 130.096C103.383 130.853 104.002 131.844 104.822 131.879C104.99 131.885 105.206 131.887 105.267 132.044C105.29 132.104 105.281 132.171 105.272 132.235C105.202 132.723 105.151 133.243 105.355 133.692C105.56 134.14 106.114 134.463 106.555 134.245C106.439 134.572 106.371 134.947 106.532 135.253C106.693 135.56 107.167 135.7 107.389 135.435C107.484 135.322 109.026 134.024 109.045 133.879C109.295 131.994 107.247 131.196 106.24 129.588C105.233 127.979 103.774 126.688 102.157 125.702C101.478 125.288 100.765 124.922 100.002 124.701C99.1335 124.45 98.2221 124.393 97.3186 124.344C96.1406 124.281 94.9379 124.232 93.8011 124.549C91.6834 125.141 90.1097 126.902 88.8056 128.68C88.3098 129.356 87.8295 130.056 87.5307 130.841C87.1735 131.78 87.0912 132.801 87.0828 133.806C87.0704 135.259 87.2111 136.74 87.7817 138.075" fill="#302D4D"/>
<path d="M86.7142 137.821C86.7142 137.821 86.6699 137.658 86.6969 137.343C86.7071 137.186 86.7372 136.993 86.7407 136.766C86.7421 136.539 86.6987 136.276 86.5792 136.006C86.4663 135.733 86.2875 135.455 86.0927 135.15C85.8979 134.847 85.6828 134.507 85.5535 134.098C85.422 133.692 85.3618 133.229 85.4101 132.746C85.434 132.504 85.4849 132.259 85.5677 132.016C85.6482 131.771 85.7704 131.537 85.8926 131.303C86.013 131.067 86.1303 130.822 86.171 130.554C86.2118 130.285 86.1741 130.003 86.1414 129.715C86.0745 129.132 86.1007 128.513 86.2485 127.899C86.3946 127.286 86.6407 126.668 87.0272 126.115C87.2109 125.832 87.4455 125.581 87.6916 125.338C87.9523 125.111 88.2308 124.892 88.5486 124.731C88.7035 124.644 88.8722 124.58 89.0373 124.51C89.206 124.449 89.3773 124.397 89.5459 124.34C89.8863 124.232 90.2024 124.07 90.4755 123.829C90.7531 123.596 90.997 123.315 91.2746 123.058C91.5455 122.793 91.8487 122.56 92.1643 122.34C92.4808 122.121 92.8239 121.935 93.178 121.769C93.5357 121.609 93.9124 121.484 94.3011 121.396C95.0766 121.234 95.9279 121.253 96.6844 121.593C96.7588 121.626 96.8331 121.66 96.9071 121.694L96.8398 121.702C97.7583 120.879 99.0111 120.56 100.165 120.661C101.323 120.757 102.427 121.281 103.146 122.128L103.1 122.108C103.629 122.076 104.154 122.049 104.671 122.084C105.187 122.118 105.696 122.217 106.154 122.43C106.61 122.646 106.998 122.981 107.264 123.387C107.532 123.79 107.663 124.286 107.576 124.751L107.541 124.694C108.311 124.921 108.923 125.447 109.32 126.047C109.719 126.649 109.923 127.337 109.905 127.982C109.909 128.144 109.881 128.301 109.863 128.455C109.836 128.608 109.803 128.754 109.794 128.899C109.783 129.043 109.801 129.184 109.856 129.309C109.91 129.437 109.99 129.551 110.064 129.667C110.364 130.129 110.597 130.582 110.75 131.014C110.902 131.445 110.977 131.854 110.958 132.211C110.944 132.568 110.844 132.862 110.727 133.076C110.612 133.294 110.478 133.427 110.426 133.54C110.367 133.65 110.361 133.717 110.357 133.716C110.357 133.716 110.357 133.648 110.412 133.533C110.462 133.415 110.593 133.277 110.701 133.061C110.811 132.849 110.906 132.56 110.914 132.21C110.929 131.86 110.851 131.457 110.697 131.033C110.541 130.608 110.307 130.162 110.006 129.705C109.932 129.591 109.849 129.474 109.79 129.338C109.728 129.203 109.708 129.046 109.719 128.894C109.728 128.742 109.761 128.592 109.786 128.442C109.803 128.291 109.83 128.138 109.825 127.981C109.838 127.353 109.636 126.683 109.245 126.098C108.856 125.515 108.257 125.006 107.513 124.79L107.47 124.777L107.479 124.733C107.558 124.297 107.435 123.83 107.178 123.444C106.922 123.056 106.547 122.733 106.109 122.528C105.667 122.324 105.17 122.227 104.664 122.195C104.156 122.162 103.636 122.19 103.107 122.222L103.078 122.224L103.06 122.202C102.361 121.382 101.286 120.872 100.154 120.779C99.0283 120.681 97.8083 120.994 96.919 121.791L96.8902 121.817L96.8517 121.8C96.7805 121.768 96.7087 121.735 96.6366 121.702C95.9075 121.375 95.0833 121.355 94.3254 121.513C93.9461 121.599 93.5773 121.721 93.2263 121.877C92.8783 122.04 92.5415 122.222 92.2298 122.437C91.9191 122.653 91.6207 122.882 91.3538 123.142C91.0811 123.394 90.8354 123.677 90.549 123.917C90.4065 124.037 90.2542 124.147 90.09 124.235C89.9257 124.324 89.7531 124.389 89.5818 124.446C89.4105 124.504 89.2401 124.555 89.0749 124.615C88.9142 124.683 88.7509 124.744 88.6 124.828C88.2905 124.985 88.0192 125.197 87.7646 125.417C87.5243 125.654 87.2936 125.899 87.1135 126.175C86.7341 126.714 86.4902 127.32 86.345 127.922C86.1976 128.525 86.1697 129.131 86.233 129.704C86.264 129.991 86.303 130.282 86.2582 130.567C86.2135 130.852 86.0896 131.106 85.9679 131.342C85.843 131.578 85.7235 131.805 85.6434 132.042C85.5615 132.278 85.5106 132.518 85.4853 132.754C85.4358 133.226 85.4915 133.679 85.6173 134.078C85.7403 134.479 85.9488 134.814 86.1405 135.12C86.3322 135.426 86.5106 135.708 86.6221 135.988C86.7403 136.264 86.7815 136.536 86.7762 136.767C86.7686 136.997 86.7346 137.189 86.7208 137.345C86.7044 137.501 86.7036 137.62 86.7071 137.699C86.7106 137.779 86.7173 137.82 86.7142 137.821Z" fill="#F5B349"/>
<path d="M94.8287 121.877C94.8274 121.888 94.7079 121.875 94.4936 121.884C94.2803 121.895 93.9682 121.934 93.6145 122.079C93.2626 122.221 92.8677 122.474 92.5623 122.875C92.2591 123.273 92.0466 123.813 92.0377 124.394C92.0351 124.561 92.0475 124.73 92.0802 124.885C92.1143 125.037 92.1856 125.181 92.306 125.239L92.4556 125.311L92.2936 125.348C91.8483 125.451 91.4915 125.743 91.2883 126.069C91.0798 126.396 91.0298 126.755 91.0506 127.04C91.0714 127.328 91.1586 127.548 91.2285 127.69C91.2998 127.833 91.3529 127.904 91.3454 127.909C91.3427 127.911 91.3272 127.896 91.2998 127.863C91.2719 127.831 91.2347 127.78 91.1931 127.71C91.1103 127.57 91.0085 127.347 90.9766 127.046C90.9439 126.75 90.9864 126.369 91.2028 126.015C91.4131 125.665 91.7881 125.349 92.2679 125.234L92.2555 125.344C92.0842 125.26 92.0027 125.077 91.9647 124.912C91.9279 124.741 91.916 124.569 91.9182 124.392C91.9275 123.783 92.1533 123.22 92.4755 122.808C92.8 122.391 93.2165 122.136 93.5835 122C93.9527 121.861 94.2754 121.834 94.4928 121.837C94.6021 121.84 94.6866 121.847 94.7433 121.857C94.8 121.866 94.8292 121.873 94.8287 121.877Z" fill="#F5B349"/>
<path d="M102.658 122.785C102.664 122.788 102.648 122.857 102.604 122.977C102.559 123.097 102.486 123.271 102.36 123.468C102.234 123.664 102.052 123.889 101.78 124.059C101.514 124.227 101.153 124.344 100.774 124.272L100.844 124.217C100.837 124.282 100.829 124.349 100.821 124.417C100.809 124.484 100.792 124.551 100.777 124.62C100.666 125.026 100.454 125.38 100.204 125.641C99.956 125.906 99.6802 126.089 99.4323 126.201C99.1831 126.314 98.9653 126.357 98.8157 126.377C98.6648 126.39 98.5815 126.387 98.5811 126.38C98.5767 126.354 98.9206 126.36 99.3956 126.125C99.6307 126.007 99.8901 125.824 100.123 125.566C100.358 125.312 100.556 124.974 100.662 124.589C100.675 124.525 100.692 124.461 100.703 124.397C100.711 124.333 100.719 124.27 100.726 124.209L100.735 124.143L100.797 124.155C101.137 124.222 101.472 124.121 101.726 123.969C101.983 123.815 102.164 123.607 102.295 123.424C102.551 123.048 102.638 122.777 102.658 122.785Z" fill="#F5B349"/>
<path d="M106.26 125.016C106.264 125.015 106.273 125.038 106.287 125.085C106.297 125.132 106.31 125.204 106.301 125.297C106.29 125.481 106.191 125.752 105.945 125.979C105.699 126.212 105.314 126.349 104.892 126.417C104.681 126.451 104.462 126.488 104.225 126.502C103.993 126.512 103.723 126.492 103.505 126.326C103.487 126.311 103.469 126.296 103.453 126.282L103.549 126.262C103.357 126.709 103.136 127.128 102.856 127.451C102.58 127.779 102.241 127.993 101.934 128.09C101.626 128.191 101.357 128.184 101.183 128.146C101.095 128.128 101.029 128.105 100.986 128.086C100.943 128.067 100.922 128.055 100.924 128.051C100.927 128.04 101.019 128.078 101.19 128.1C101.36 128.124 101.617 128.116 101.907 128.011C102.197 127.907 102.512 127.699 102.773 127.38C103.037 127.065 103.249 126.657 103.439 126.214L103.471 126.14L103.534 126.194C103.548 126.206 103.563 126.218 103.578 126.231C103.757 126.369 103.998 126.393 104.22 126.384C104.444 126.373 104.667 126.339 104.874 126.308C105.289 126.247 105.655 126.123 105.889 125.916C106.126 125.711 106.231 125.463 106.255 125.291C106.282 125.117 106.247 125.018 106.26 125.016Z" fill="#F5B349"/>
<path d="M103.186 110.488C103.19 110.496 103.127 110.524 103.037 110.609C102.948 110.693 102.836 110.847 102.786 111.074C102.735 111.299 102.747 111.592 102.888 111.886C103.023 112.182 103.263 112.466 103.537 112.767L103.582 112.816L103.522 112.846C103.126 113.049 102.747 113.402 102.521 113.877C102.293 114.347 102.257 114.953 102.529 115.463C102.764 115.933 103.207 116.272 103.669 116.349L103.837 116.377L103.687 116.457C103.147 116.749 102.805 117.269 102.686 117.765C102.56 118.268 102.664 118.741 102.826 119.083C102.989 119.429 103.207 119.654 103.363 119.79C103.523 119.926 103.625 119.982 103.62 119.99C103.618 119.993 103.592 119.981 103.543 119.955C103.494 119.929 103.424 119.885 103.339 119.82C103.171 119.691 102.939 119.468 102.761 119.115C102.584 118.767 102.464 118.273 102.59 117.742C102.708 117.219 103.061 116.669 103.633 116.355L103.651 116.464C103.147 116.383 102.673 116.018 102.423 115.518C102.282 115.248 102.211 114.946 102.218 114.652C102.222 114.358 102.301 114.077 102.418 113.828C102.659 113.329 103.059 112.963 103.478 112.756L103.463 112.834C103.192 112.53 102.948 112.233 102.814 111.919C102.672 111.609 102.667 111.293 102.73 111.06C102.791 110.822 102.918 110.666 103.016 110.586C103.066 110.545 103.109 110.52 103.139 110.506C103.169 110.492 103.185 110.486 103.186 110.488Z" fill="#F5B349"/>
<path d="M113.519 114.645C113.522 114.647 113.508 114.669 113.481 114.71C113.451 114.75 113.413 114.813 113.351 114.886C113.23 115.033 113.031 115.235 112.737 115.431C112.444 115.625 112.052 115.814 111.573 115.9C111.099 115.995 110.535 115.977 109.98 115.775L110.055 115.724C110.029 116.407 109.729 117.186 109.078 117.664C108.389 118.169 107.429 118.155 106.841 117.692L106.93 117.639C106.976 117.929 106.93 118.215 106.835 118.462C106.739 118.711 106.598 118.923 106.441 119.1C106.123 119.455 105.75 119.656 105.443 119.795C105.133 119.932 104.875 120.008 104.7 120.06C104.524 120.11 104.428 120.131 104.426 120.126C104.424 120.119 104.517 120.086 104.689 120.026C104.861 119.963 105.113 119.877 105.415 119.733C105.714 119.588 106.073 119.383 106.371 119.039C106.664 118.702 106.909 118.199 106.821 117.657L106.798 117.517L106.909 117.604C107.455 118.03 108.362 118.041 109.008 117.567C109.621 117.118 109.914 116.374 109.944 115.72L109.947 115.643L110.019 115.67C110.551 115.868 111.095 115.892 111.557 115.807C112.022 115.731 112.408 115.554 112.701 115.373C113.288 115.001 113.5 114.626 113.519 114.645Z" fill="#F5B349"/>
<path d="M112.658 121.763C112.661 121.763 112.667 121.794 112.652 121.849C112.636 121.904 112.589 121.98 112.503 122.046C112.33 122.173 112.042 122.294 111.665 122.34C111.291 122.384 110.819 122.334 110.375 122.085C109.936 121.84 109.539 121.398 109.361 120.836L109.358 120.824L109.464 120.841C109.132 121.324 108.647 121.64 108.176 121.801C107.701 121.965 107.24 121.973 106.869 121.924C106.497 121.874 106.208 121.772 106.018 121.689C105.826 121.605 105.729 121.542 105.732 121.536C105.741 121.509 106.148 121.756 106.879 121.84C107.241 121.877 107.686 121.86 108.139 121.697C108.59 121.536 109.051 121.231 109.365 120.773L109.433 120.674L109.472 120.789L109.475 120.8C109.642 121.33 110.016 121.751 110.43 121.989C110.846 122.23 111.296 122.288 111.656 122.256C112.018 122.223 112.307 122.115 112.476 122.008C112.651 121.894 112.648 121.758 112.658 121.763Z" fill="#F5B349"/>
<path d="M95.6548 114.799C95.6836 114.789 95.68 115.299 96.0824 115.958C96.2834 116.281 96.5933 116.63 97.0271 116.884C97.4596 117.135 98.0151 117.277 98.5919 117.233C98.9159 117.209 99.2258 117.126 99.4989 117.002L99.5658 116.972L99.5804 117.044C99.6725 117.503 99.8553 117.91 100.069 118.242C100.284 118.572 100.526 118.831 100.75 119.019C100.861 119.113 100.967 119.196 101.062 119.253C101.158 119.309 101.256 119.325 101.324 119.294C101.393 119.264 101.43 119.212 101.44 119.174C101.451 119.136 101.444 119.113 101.449 119.112C101.451 119.111 101.466 119.132 101.46 119.178C101.456 119.224 101.419 119.289 101.34 119.331C101.261 119.375 101.141 119.361 101.035 119.305C100.928 119.247 100.82 119.17 100.703 119.078C100.467 118.894 100.212 118.634 99.9841 118.298C99.7588 117.96 99.5645 117.542 99.4662 117.067L99.5476 117.108C99.2626 117.24 98.939 117.327 98.6008 117.353C97.9992 117.399 97.4202 117.247 96.9717 116.98C96.522 116.71 96.2081 116.341 96.0103 116.002C95.8097 115.663 95.7243 115.351 95.6831 115.137C95.6654 115.029 95.6544 114.944 95.653 114.887C95.6504 114.829 95.6508 114.799 95.6548 114.799Z" fill="#F5B349"/>
<path d="M100.687 142.499C100.576 142.527 100.801 143.26 100.337 143.976C99.8756 144.692 99.0722 144.853 99.0983 144.957C99.1023 145.006 99.3152 145.045 99.6463 144.952C99.9717 144.863 100.41 144.612 100.694 144.174C100.976 143.736 101.008 143.259 100.94 142.95C100.873 142.636 100.736 142.479 100.687 142.499Z" fill="#302D4D"/>
<path d="M104.111 155.093C104.111 155.093 107.23 175.855 111.005 179.494C115.041 183.384 122.294 185.303 122.294 185.303C122.294 185.303 131.948 189.139 135.303 188.302L141.371 167.397C141.371 167.397 141.1 166.193 139.725 166.142C139.123 166.121 137.389 166.934 136.604 166.743C133.461 165.981 126.092 154.657 126.092 154.657C126.092 154.657 119.094 144.963 113.128 145.838C109.038 146.437 107.344 148.269 105.804 152.412C105.431 153.414 104.859 154.331 104.111 155.093Z" fill="#F5B349"/>
<path d="M104.111 155.093L101.39 168.941L88.8098 165.349L86.6367 172.729L107.921 182.387L112.11 164.879L104.111 155.093Z" fill="#F5B349"/>
<path d="M132.569 179.518C132.509 179.496 133.435 176.903 134.636 173.729C135.838 170.554 136.859 167.999 136.919 168.022C136.979 168.044 136.053 170.636 134.852 173.812C133.651 176.986 132.628 179.541 132.569 179.518Z" fill="#302D4D"/>
<path d="M132.333 176.614C132.273 176.592 132.791 175.028 133.49 173.122C134.19 171.215 134.805 169.688 134.864 169.71C134.924 169.732 134.406 171.295 133.707 173.202C133.008 175.108 132.393 176.636 132.333 176.614Z" fill="#302D4D"/>
<path d="M103.783 159.099C103.849 159.099 103.896 160.551 103.967 162.339C104.002 163.232 104.041 164.041 104.077 164.625C104.112 165.21 104.145 165.57 104.111 165.576C104.082 165.581 103.992 165.226 103.915 164.641C103.836 164.057 103.772 163.245 103.737 162.348C103.7 161.451 103.697 160.639 103.71 160.051C103.723 159.463 103.752 159.099 103.783 159.099Z" fill="#302D4D"/>
<mask id="mask0_2_3" style="mask-type:luminance" maskUnits="userSpaceOnUse" x="96" y="166" width="9" height="13">
<path d="M96.8555 166.182H104.111V178.298H96.8555V166.182Z" fill="white"/>
</mask>
<g mask="url(#mask0_2_3)">
<g opacity="0.300003">
<path d="M96.8555 177.366L101.544 175.317L104.111 166.181L102.364 177.439L98.9112 178.298L96.8555 177.366Z" fill="#302D4D"/>
</g>
</g>
<mask id="mask1_2_3" style="mask-type:luminance" maskUnits="userSpaceOnUse" x="131" y="169" width="6" height="11">
<path d="M131.467 169.73H136.113V179.822H131.467V169.73Z" fill="white"/>
</mask>
<g mask="url(#mask1_2_3)">
<g opacity="0.300003">
<path d="M135.987 169.814C135.679 169.631 135.281 169.766 135.025 170.029C134.768 170.293 134.622 170.659 134.482 171.015C133.555 173.371 132.629 175.727 131.702 178.083C131.57 178.419 131.435 178.776 131.473 179.141C131.512 179.505 131.794 179.866 132.122 179.819C132.426 179.775 132.609 179.432 132.744 179.127C134.065 176.142 135.192 173.051 136.113 169.886" fill="#302D4D"/>
</g>
</g>
<path d="M69.3213 167.201C69.3213 167.201 71.0189 164.927 72.0132 164.44C72.8042 164.053 77.5195 163.215 78.0941 163.327C78.6682 163.439 88.8097 165.671 88.8097 165.671L87.4959 170.122L86.8487 169.818C86.8487 169.818 84.8009 170.851 83.2396 170.356C81.6788 169.861 79.6806 168.481 79.6806 168.481L78.2853 169.005C78.2853 169.005 79.8187 169.488 79.9334 170.125C80.048 170.762 79.1751 170.832 79.1751 170.832L79.1122 171.112C79.002 171.604 78.5226 171.915 78.0312 171.816C77.1326 171.635 75.8347 171.326 75.5456 171.004C75.4261 170.871 74.8095 169.735 74.8095 169.735C73.8604 169.063 73.8755 168.396 73.929 167.988C74.0361 167.173 74.8985 166.259 74.8985 166.259L73.1875 166.165C73.1875 166.165 70.4293 169.005 69.3213 167.201Z" fill="white"/>
<path d="M83.5642 166.455C81.5067 166.455 79.5532 166.178 78.0211 166.562C77.617 166.664 77.2062 166.81 76.9149 167.11C76.6241 167.409 76.4886 167.896 76.6984 168.257C76.8782 168.566 77.2562 168.707 77.6121 168.727C77.968 168.747 78.3226 168.673 78.6789 168.664C79.5359 168.644 80.354 169.005 81.1141 169.403C81.8741 169.801 82.6253 170.25 83.4633 170.432C84.3013 170.613 86.2694 170.454 86.8479 169.818" fill="white"/>
<path d="M86.8483 169.818C86.8532 169.822 86.8133 169.876 86.7181 169.963C86.6185 170.043 86.4592 170.15 86.2334 170.24C85.7837 170.42 85.0927 170.573 84.2281 170.583C83.7979 170.593 83.3078 170.525 82.8302 170.345C82.3481 170.174 81.8661 169.922 81.3676 169.658C80.8692 169.395 80.3473 169.12 79.7722 168.944C79.4854 168.857 79.1866 168.795 78.8816 168.782C78.5779 168.764 78.2667 168.819 77.9316 168.84C77.6005 168.864 77.2362 168.831 76.9325 168.646C76.6178 168.474 76.4341 168.081 76.4921 167.738C76.5341 167.397 76.7293 167.095 76.9817 166.902C77.2327 166.704 77.5204 166.593 77.7971 166.513C78.9166 166.207 79.9555 166.266 80.8054 166.288C81.6284 166.334 82.3087 166.371 82.8244 166.399C83.3008 166.425 83.5646 166.437 83.5646 166.455C83.5646 166.463 83.4986 166.47 83.3729 166.477C83.2467 166.484 83.0613 166.488 82.8222 166.489C82.3441 166.493 81.6527 166.469 80.801 166.452C79.9551 166.45 78.9237 166.413 77.8568 166.718C77.5943 166.796 77.3331 166.903 77.1185 167.075C76.9033 167.243 76.7502 167.491 76.7165 167.765C76.678 168.039 76.8037 168.307 77.0512 168.449C77.2968 168.597 77.6045 168.632 77.9179 168.609C78.2322 168.59 78.5602 168.532 78.8918 168.552C79.2207 168.567 79.5385 168.634 79.8386 168.727C80.4398 168.915 80.971 169.202 81.4672 169.47C82.4491 170.02 83.3764 170.453 84.2295 170.419C85.0732 170.43 85.7567 170.304 86.202 170.155C86.654 170.007 86.8341 169.802 86.8483 169.818Z" fill="#EAEAEA"/>
<path d="M76.9816 165.975C76.9918 166.003 76.7895 166.098 76.4451 166.162C76.1016 166.228 75.6226 166.273 75.0945 166.287C74.0379 166.314 73.1849 166.229 73.1875 166.165C73.1897 166.1 74.0414 166.082 75.0883 166.056C75.6116 166.041 76.0839 166.023 76.4239 165.999C76.7643 165.979 76.9705 165.943 76.9816 165.975Z" fill="#EAEAEA"/>
<path d="M79.246 170.835C79.2602 170.889 78.1593 171.067 76.856 170.717C75.5497 170.378 74.6781 169.679 74.7171 169.639C74.7543 169.577 75.6542 170.167 76.9149 170.493C78.1717 170.831 79.2438 170.763 79.246 170.835Z" fill="#EAEAEA"/>
<path d="M76.4152 168.514C76.4227 168.452 76.8844 168.458 77.432 168.597C77.9804 168.734 78.3908 168.947 78.3682 169.005C78.3452 169.066 77.9096 168.955 77.3762 168.822C76.8432 168.687 76.4067 168.578 76.4152 168.514Z" fill="#EAEAEA"/>
<path d="M55.5947 172.005L66.7637 166.512C66.9469 166.422 67.163 166.439 67.3312 166.556L79.6103 174.397C79.8941 174.596 79.9477 175.005 79.7254 175.274L73.2342 184.002L55.5947 172.005Z" fill="#302D4D"/>
<path d="M56.9873 172.408L72.019 182.353L78.8485 174.703L67.0151 167.318L56.9873 172.408Z" fill="white"/>
<path d="M62.8292 169.443L75.7338 178.192L72.019 182.353L56.9873 172.408L62.8292 169.443Z" fill="#EAEAEA"/>
<path d="M69.4263 169.7L67.4529 171.311C67.3223 171.418 67.1306 171.398 67.0244 171.267C66.9181 171.136 66.938 170.943 67.0686 170.836L69.042 169.225C69.1726 169.118 69.3643 169.138 69.4705 169.27C69.5768 169.401 69.5569 169.593 69.4263 169.7Z" fill="#EAEAEA"/>
<path d="M70.3189 170.431L68.3454 172.042C68.2149 172.149 68.0232 172.129 67.9169 171.998C67.8107 171.867 67.8306 171.674 67.9612 171.567L69.9346 169.956C70.0652 169.849 70.2569 169.869 70.3631 170.001C70.4694 170.132 70.4494 170.324 70.3189 170.431Z" fill="#EAEAEA"/>
<path d="M71.2739 171.287L69.3005 172.898C69.1699 173.004 68.9783 172.984 68.872 172.853C68.7658 172.722 68.7857 172.529 68.9163 172.423L70.8897 170.812C71.0203 170.705 71.212 170.725 71.3182 170.856C71.4244 170.987 71.4045 171.18 71.2739 171.287Z" fill="#EAEAEA"/>
<path d="M71.6662 172.447L70.5476 173.361C70.417 173.467 70.2249 173.447 70.1191 173.316C70.0128 173.185 70.0328 172.992 70.1634 172.886L71.282 171.972C71.4126 171.866 71.6042 171.886 71.7105 172.017C71.8167 172.148 71.7968 172.341 71.6662 172.447Z" fill="#EAEAEA"/>
<path d="M67.7673 169.431L66.4663 170.348C66.3282 170.445 66.1382 170.412 66.0417 170.274C65.9448 170.135 65.9784 169.944 66.1161 169.847L67.4176 168.93C67.5552 168.833 67.7451 168.866 67.8416 169.005C67.9386 169.143 67.9049 169.334 67.7673 169.431Z" fill="#302D4D"/>
<path d="M74.474 173.817L73.3501 174.946C73.231 175.066 73.038 175.066 72.9194 174.946C72.8003 174.826 72.8003 174.632 72.9194 174.513L74.0433 173.384C74.162 173.264 74.355 173.264 74.474 173.384C74.5931 173.503 74.5931 173.697 74.474 173.817Z" fill="#302D4D"/>
<path d="M73.2339 184.003C72.9404 184.463 72.3305 184.598 71.8718 184.303L55.4551 173.75C54.996 173.455 54.8619 172.842 55.1558 172.381C55.4493 171.92 56.0589 171.786 56.5179 172.08L72.9347 182.634C73.3933 182.929 73.5274 183.542 73.2339 184.003Z" fill="#302D4D"/>
<path d="M199.319 151.653L199.798 139.9C199.798 139.9 211.77 137.293 212.069 135.13L189.501 132.526L188.007 150.81L199.319 151.653Z" fill="#F5B349"/>
<mask id="mask2_2_3" style="mask-type:luminance" maskUnits="userSpaceOnUse" x="192" y="138" width="2" height="3">
<path d="M192.126 138.629H193.888V140.4H192.126V138.629Z" fill="white"/>
</mask>
<g mask="url(#mask2_2_3)">
<g opacity="0.600006">
<path d="M192.72 140.344C192.291 140.189 192.026 139.671 192.162 139.234C192.298 138.797 192.82 138.521 193.252 138.668C193.683 138.814 194.02 139.427 193.837 139.846C193.653 140.266 193.022 140.555 192.638 140.308" fill="white"/>
</g>
</g>
<path d="M189.501 132.527L189.351 134.369L211.23 136.12C211.23 136.12 211.989 135.883 212.202 134.978L189.501 132.527Z" fill="#302D4D"/>
<path d="M200.157 140.044C200.162 139.933 199.613 139.839 199.096 139.44C198.569 139.054 198.325 138.551 198.22 138.587C198.117 138.601 198.23 139.278 198.865 139.75C199.495 140.228 200.173 140.148 200.157 140.044Z" fill="#302D4D"/>
<path d="M202.608 139.24C202.641 139.134 202.177 138.908 201.837 138.409C201.483 137.921 201.427 137.405 201.317 137.401C201.214 137.376 201.087 138.021 201.522 138.633C201.95 139.249 202.597 139.346 202.608 139.24Z" fill="#302D4D"/>
<path d="M204.176 136.488C204.077 136.456 203.881 137 204.118 137.63C204.351 138.263 204.854 138.543 204.908 138.454C204.978 138.367 204.667 138.015 204.48 137.495C204.281 136.979 204.285 136.508 204.176 136.488Z" fill="#302D4D"/>
<path d="M199.752 142.71C199.713 142.605 199.194 142.72 198.572 142.628C197.949 142.55 197.479 142.302 197.414 142.393C197.343 142.468 197.787 142.916 198.521 143.013C199.253 143.116 199.8 142.802 199.752 142.71Z" fill="#302D4D"/>
<mask id="mask3_2_3" style="mask-type:luminance" maskUnits="userSpaceOnUse" x="188" y="132" width="25" height="20">
<path d="M188.008 132.527H212.07V151.653H188.008V132.527Z" fill="white"/>
</mask>
<g mask="url(#mask3_2_3)">
<g opacity="0.300003">
<path d="M199.32 151.654L199.799 139.9C199.799 139.9 211.771 137.294 212.07 135.13L189.502 132.527L188.008 150.81L199.32 151.654Z" fill="#302D4D"/>
</g>
</g>
<path d="M201.217 143.033C201.034 143.399 199.676 177.523 199.676 177.523L187.985 172.889C187.985 172.889 185.917 169.008 186.281 163.698C186.646 158.387 189.744 142.09 189.744 142.09L201.217 143.033Z" fill="#302D4D"/>
<path d="M198.099 152.4L192.447 142.099C192.447 142.099 201.343 133.635 200.483 131.629L179.838 141.154L187.989 157.569L198.099 152.4Z" fill="#F5B349"/>
<mask id="mask4_2_3" style="mask-type:luminance" maskUnits="userSpaceOnUse" x="185" y="144" width="3" height="3">
<path d="M185.551 144.437H187.328V146.18H185.551V144.437Z" fill="white"/>
</mask>
<g mask="url(#mask4_2_3)">
<g opacity="0.600006">
<path d="M186.623 146.164C186.176 146.256 185.682 145.95 185.573 145.505C185.464 145.061 185.769 144.553 186.214 144.454C186.659 144.354 187.263 144.703 187.322 145.157C187.381 145.611 186.991 146.187 186.535 146.177" fill="white"/>
</g>
</g>
<path d="M179.838 141.154L180.659 142.809L200.275 132.913C200.275 132.913 200.802 132.316 200.518 131.43L179.838 141.154Z" fill="#302D4D"/>
<path d="M192.828 142.035C192.775 141.937 192.257 142.143 191.61 142.071C190.959 142.015 190.492 141.712 190.421 141.798C190.339 141.863 190.786 142.383 191.572 142.457C192.357 142.538 192.896 142.115 192.828 142.035Z" fill="#302D4D"/>
<path d="M194.51 140.072C194.484 139.964 193.97 140.013 193.423 139.763C192.868 139.529 192.554 139.117 192.458 139.171C192.356 139.203 192.581 139.82 193.268 140.118C193.952 140.422 194.556 140.168 194.51 140.072Z" fill="#302D4D"/>
<path d="M194.432 136.901C194.331 136.926 194.443 137.493 194.972 137.908C195.497 138.328 196.072 138.306 196.072 138.202C196.086 138.092 195.639 137.952 195.211 137.604C194.774 137.266 194.535 136.861 194.432 136.901Z" fill="#302D4D"/>
<path d="M193.857 144.527C193.77 144.457 193.385 144.825 192.806 145.071C192.233 145.328 191.702 145.361 191.694 145.472C191.673 145.574 192.283 145.726 192.96 145.426C193.64 145.132 193.945 144.58 193.857 144.527Z" fill="#302D4D"/>
<mask id="mask5_2_3" style="mask-type:luminance" maskUnits="userSpaceOnUse" x="186" y="148" width="11" height="8">
<path d="M186.056 148.524H196.978V155.366H186.056V148.524Z" fill="white"/>
</mask>
<g mask="url(#mask5_2_3)">
<g opacity="0.300003">
<path d="M196.978 150.361L195.973 148.524L186.056 153.675L186.891 155.366L196.978 150.361Z" fill="#302D4D"/>
</g>
</g>
<path d="M141.371 167.397L144.64 166.353C144.64 166.353 150.654 161.501 157.397 162.141C164.139 162.782 169.606 165.968 169.606 165.968L176.623 169.832L194.664 174.685L184.277 150.056L194.534 145.782C194.534 145.782 204.787 162.373 207.885 167.042C210.983 171.712 213.34 176.429 213.705 180.274C214.069 184.12 211.191 189.506 203.263 190.422C195.336 191.337 161.406 189.06 161.406 189.06L135.303 188.302L141.371 167.397Z" fill="#302D4D"/>
<path d="M141.371 167.397C141.371 167.397 141.341 167.521 141.274 167.759C141.206 168 141.107 168.353 140.976 168.816C140.709 169.749 140.316 171.125 139.805 172.913C138.774 176.49 137.269 181.714 135.366 188.321L135.305 188.236C140.689 188.386 146.974 188.562 154.008 188.758C161.048 188.837 168.815 189.485 177.189 189.873C181.376 190.081 185.714 190.275 190.184 190.407C192.419 190.468 194.687 190.519 196.985 190.524C198.134 190.518 199.291 190.525 200.453 190.477C201.034 190.462 201.617 190.446 202.198 190.391C202.78 190.349 203.365 190.311 203.941 190.202C206.249 189.859 208.558 189.017 210.389 187.464C212.221 185.945 213.503 183.659 213.607 181.212C213.638 180.909 213.594 180.605 213.591 180.301C213.552 179.997 213.526 179.69 213.469 179.387C213.364 178.781 213.23 178.177 213.054 177.582C212.714 176.39 212.261 175.225 211.746 174.083C210.708 171.801 209.426 169.612 208.033 167.48C205.623 163.81 203.336 160.127 201.071 156.516C198.82 152.894 196.607 149.332 194.439 145.842L194.578 145.887C191.084 147.341 187.664 148.765 184.319 150.158L184.378 150.013C188.075 158.789 191.553 167.047 194.755 174.646L194.833 174.832L194.639 174.78C188.12 173.021 182.089 171.394 176.601 169.914L176.592 169.911L176.583 169.906C174.712 168.874 172.909 167.878 171.175 166.921C170.304 166.45 169.468 165.958 168.624 165.533C167.777 165.111 166.93 164.734 166.09 164.397C162.726 163.067 159.485 162.298 156.574 162.161C155.119 162.115 153.756 162.302 152.519 162.592C151.284 162.897 150.177 163.307 149.188 163.736C147.215 164.61 145.719 165.57 144.657 166.374L144.652 166.377L144.648 166.378C143.538 166.726 142.722 166.982 142.179 167.152C141.638 167.32 141.371 167.397 141.371 167.397C141.371 167.397 141.625 167.307 142.163 167.131C142.705 166.954 143.522 166.689 144.632 166.328L144.624 166.332C145.685 165.516 147.177 164.545 149.154 163.657C150.144 163.222 151.255 162.805 152.495 162.494C153.738 162.197 155.11 162.003 156.578 162.045C159.509 162.174 162.761 162.935 166.143 164.263C166.987 164.599 167.838 164.976 168.691 165.398C169.543 165.825 170.38 166.316 171.252 166.785C172.986 167.738 174.791 168.729 176.663 169.758L176.645 169.751C182.135 171.223 188.168 172.841 194.69 174.59L194.574 174.723C191.366 167.126 187.881 158.872 184.176 150.099L184.133 149.996L184.235 149.953C187.579 148.559 190.999 147.134 194.491 145.678L194.579 145.641L194.63 145.722C196.799 149.211 199.013 152.773 201.265 156.393C203.531 160.004 205.817 163.686 208.226 167.352C209.623 169.492 210.911 171.689 211.955 173.988C212.474 175.136 212.93 176.312 213.275 177.518C213.453 178.12 213.589 178.733 213.695 179.349C213.753 179.657 213.779 179.969 213.819 180.279C213.823 180.594 213.866 180.909 213.836 181.221C213.727 183.744 212.408 186.085 210.535 187.639C208.662 189.225 206.311 190.078 203.975 190.424C203.391 190.534 202.801 190.572 202.214 190.614C201.628 190.669 201.043 190.685 200.46 190.699C199.294 190.747 198.136 190.74 196.985 190.745C194.684 190.738 192.414 190.685 190.178 190.623C185.706 190.488 181.367 190.289 177.179 190.077C168.801 189.681 161.039 189.022 154.001 188.932C146.968 188.72 140.685 188.53 135.301 188.368L135.216 188.366L135.24 188.284C137.173 181.674 138.701 176.448 139.748 172.87C140.272 171.09 140.676 169.72 140.949 168.792C141.086 168.334 141.19 167.985 141.261 167.746C141.332 167.512 141.371 167.397 141.371 167.397Z" fill="#F5B349"/>
<path d="M193.421 174.286C193.425 174.271 193.574 174.291 193.841 174.342C194.108 174.39 194.492 174.477 194.965 174.589C195.905 174.828 197.212 175.182 198.56 175.833C199.916 176.471 200.976 177.379 201.578 178.153C201.738 178.34 201.861 178.525 201.968 178.688C202.081 178.848 202.166 178.992 202.228 179.115C202.358 179.356 202.422 179.493 202.408 179.5C202.369 179.524 202.084 178.987 201.454 178.259C200.831 177.527 199.791 176.668 198.459 176.041C197.137 175.402 195.848 175.025 194.923 174.747C193.992 174.48 193.413 174.32 193.421 174.286Z" fill="#F5B349"/>
<path d="M80.757 182.041C80.757 182.041 76.1311 179.399 75.229 179.344C73.943 179.266 68.2729 179.462 67.5783 179.415C66.9564 179.373 66.6979 180.034 66.9608 180.479C67.2242 180.925 67.863 181.644 69.6173 181.6C71.3716 181.556 72.3804 181.865 72.8191 182.041C73.2578 182.217 73.1316 182.759 73.1316 182.759C73.1316 182.759 70.5858 182.893 69.8461 182.719C68.8307 182.481 65.4704 180.188 65.4704 180.188L64.1291 179.326C64.1291 179.326 63.5678 180.012 64.4447 181.29C65.3221 182.568 66.4181 183.713 66.4181 183.713C66.4181 183.713 65.2141 184.474 66.2667 185.639C66.2667 185.639 65.4929 187.105 67.2543 187.962C67.2543 187.962 67.6434 188.989 68.403 189.601C68.9382 190.033 70.2946 189.951 71.1272 190.001C72.0745 190.058 74.1524 189.854 74.8363 189.709C76.7371 189.308 78.101 188.843 78.101 188.843L82.2904 189.083L82.6715 181.906L80.757 182.041Z" fill="white"/>
<path d="M69.0928 185.203C69.0715 185.261 68.3243 185.028 67.4793 184.569C66.6324 184.113 66.0278 183.614 66.0641 183.565C66.1017 183.51 66.7559 183.916 67.5886 184.365C68.419 184.816 69.1167 185.141 69.0928 185.203Z" fill="#EAEAEA"/>
<path d="M68.537 186.81C68.5202 186.869 67.9093 186.734 67.2321 186.375C66.5534 186.019 66.0962 185.59 66.1351 185.543C66.1754 185.49 66.6818 185.825 67.3396 186.17C67.9952 186.519 68.5574 186.747 68.537 186.81Z" fill="#EAEAEA"/>
<path d="M68.6359 188.533C68.6235 188.593 68.076 188.516 67.4739 188.212C66.8697 187.91 66.4801 187.516 66.5204 187.47C66.5625 187.418 66.9994 187.717 67.5771 188.004C68.1521 188.296 68.6523 188.468 68.6359 188.533Z" fill="#EAEAEA"/>
<mask id="mask6_2_3" style="mask-type:luminance" maskUnits="userSpaceOnUse" x="114" y="159" width="6" height="24">
<path d="M114.928 159.925H119.348V182.212H114.928V159.925Z" fill="white"/>
</mask>
<g mask="url(#mask6_2_3)">
<g opacity="0.300003">
<path d="M114.928 182.212C117.292 179.113 118.506 175.253 118.999 171.38C119.491 167.506 119.373 163.826 119.185 159.925C118.366 167.809 116.964 175.116 114.928 182.212Z" fill="#302D4D"/>
</g>
</g>
<path d="M119.593 155.408C119.634 155.804 119.6 154.545 119.591 154.985C119.48 160.301 116.361 182.957 112.314 187.366C109.224 190.73 80.2539 189.299 80.2539 189.299L80.5731 181.718C80.5731 181.718 81.3548 181.49 86.5562 180.837C91.7575 180.183 102.365 177.439 102.365 177.439L105.936 153.733" fill="#F5B349"/>
<path d="M105.936 153.732C105.936 153.732 105.923 153.878 105.885 154.159C105.845 154.448 105.787 154.863 105.711 155.405C105.551 156.505 105.318 158.11 105.019 160.165C104.407 164.291 103.528 170.217 102.455 177.452L102.446 177.513L102.387 177.528C99.2859 178.322 95.8893 179.151 92.2426 179.925C90.4179 180.306 88.5317 180.681 86.5725 180.945C84.6261 181.203 82.6004 181.433 80.604 181.826L80.685 181.723C80.5841 184.139 80.4774 186.696 80.3685 189.304L80.2596 189.184C82.3047 189.279 84.4747 189.35 86.6716 189.403C90.8159 189.5 94.8641 189.523 98.7702 189.415C100.723 189.359 102.64 189.27 104.512 189.117C106.381 188.956 108.215 188.756 109.95 188.329C110.382 188.218 110.807 188.091 111.21 187.926C111.609 187.756 112.006 187.561 112.276 187.246C112.837 186.595 113.255 185.83 113.608 185.059C114.318 183.515 114.824 181.931 115.277 180.397C116.165 177.317 116.786 174.39 117.307 171.713C118.329 166.353 118.91 161.971 119.247 158.938C119.413 157.421 119.511 156.24 119.552 155.438C119.561 155.238 119.569 155.061 119.576 154.907L119.578 154.891C119.578 154.896 119.574 154.877 119.599 154.874C119.611 154.876 119.608 154.88 119.612 154.884C119.617 154.896 119.615 154.892 119.615 154.897L119.618 154.926L119.62 154.98C119.621 155.015 119.622 155.049 119.623 155.081C119.623 155.144 119.623 155.202 119.624 155.254C119.617 155.358 119.635 155.435 119.6 155.489C119.588 155.433 119.593 155.408 119.593 155.408C119.595 155.407 119.599 155.436 119.609 155.483C119.599 155.439 119.606 155.356 119.6 155.255C119.598 155.203 119.596 155.145 119.593 155.082C119.592 155.05 119.59 155.016 119.588 154.982L119.584 154.928L119.581 154.902C119.577 154.898 119.581 154.902 119.612 154.897L119.611 154.91C119.607 155.063 119.603 155.24 119.598 155.439C119.572 156.244 119.489 157.427 119.336 158.947C119.027 161.985 118.47 166.374 117.467 171.744C116.956 174.426 116.343 177.359 115.461 180.45C115.009 181.992 114.506 183.582 113.791 185.146C113.435 185.926 113.016 186.703 112.431 187.385C112.125 187.74 111.701 187.944 111.291 188.121C110.873 188.293 110.44 188.422 110.002 188.536C108.245 188.972 106.405 189.173 104.53 189.337C102.653 189.494 100.732 189.585 98.7764 189.642C94.865 189.753 90.8132 189.731 86.6663 189.635C84.4672 189.582 82.2972 189.51 80.2481 189.414L80.1348 189.408L80.1392 189.294C80.2499 186.687 80.3583 184.129 80.461 181.713L80.4646 181.626L80.5416 181.61C81.5739 181.389 82.5748 181.263 83.5778 181.117C84.5787 180.985 85.5685 180.856 86.5455 180.728C88.4928 180.469 90.3777 180.097 92.2001 179.72C95.8433 178.954 99.2412 178.134 102.342 177.349L102.274 177.425C103.38 170.195 104.286 164.272 104.916 160.149C105.236 158.098 105.486 156.495 105.657 155.397C105.744 154.857 105.811 154.443 105.858 154.155C105.905 153.875 105.936 153.732 105.936 153.732Z" fill="#302D4D"/>
</svg>
