[
    { "model": "accounts.region", "pk": 1, "fields": { "name": "Africa" } },
    { "model": "accounts.region", "pk": 2, "fields": { "name": "Asia" } },
    {
      "model": "accounts.region",
      "pk": 3,
      "fields": { "name": "Europe/Central Asia" }
    },
    {
      "model": "accounts.region",
      "pk": 4,
      "fields": { "name": "Latin America" }
    },
    {
      "model": "accounts.region",
      "pk": 5,
      "fields": { "name": "Middle East/North Africa" }
    }
]